{
"description": "this is the test environment definition for rendering the mustache template into solidity source",
"dev": true,
"goalLine": 2,
"fifaRoundId": 0,
"fifaMatchId": 0,
"matchStartTimestamp": 2516466086,
"matchStartTimeString": "",
"delayHoursBeforeClear": 0
}
